…
2. Which cities in California have the highest number of colleges?

```r
colleges%>%
  group_by(city)%>%
  summarize(hi_num = n_distinct(instnm))%>%
  arrange(desc(hi_num))
```

```
## # A tibble: 161 × 2
##    city          hi_num
##    <chr>          <int>
##  1 Los Angeles       24
##  2 San Diego         18
##  3 San Francisco     15
##  4 Sacramento        10
##  5 Berkeley           9
##  6 Oakland            9
##  7 Claremont          7
##  8 Pasadena           6
##  9 Fresno             5
## 10 Irvine             5
## # ℹ 151 more rows
```
…
