…
```r
pokemon <- pokemon %>%
  mutate_all(~ifelse(. == "", NA, .))
```

check "NA" again

```r
pokemon %>% naniar::miss_var_summary()
```

```
## # A tibble: 41 × 3
##    variable         n_miss pct_miss
##    <chr>             <int>    <dbl>
##  1 type2               384    47.9 
##  2 percentage_male      98    12.2 
##  3 height_m             20     2.50
##  4 weight_kg            20     2.50
##  5 abilities             0     0   
##  6 against_bug           0     0   
##  7 against_dark          0     0   
##  8 against_dragon        0     0   
##  9 against_electric      0     0   
## 10 against_fairy         0     0   
## # ℹ 31 more rows
```
