…
```r
global_sharks %>% naniar::miss_var_summary()
```

```
## # A tibble: 21 × 3
##    variable n_miss pct_miss
##    <chr>     <int>    <dbl>
##  1 time       3518    51.1 
##  2 species    3118    45.3 
##  3 age        2982    43.3 
##  4 activity    586     8.51
##  5 sex         572     8.30
##  6 location    565     8.20
##  7 area        481     6.98
##  8 date        305     4.43
##  9 name        220     3.19
## 10 year        132     1.92
## # ℹ 11 more rows
```
…
3. (3 points) Are there months of the year when incidents are more likely to occur? Make a plot that shows the total number of incidents by month. Which month has the highest number of incidents?


```r
new_sharks <- global_sharks%>%
  select(-"year")%>%
  separate(date, into = c("year", "month", "day"), sep ="-");new_sharks
```

```
## # A tibble: 6,890 × 22
##    year  month day   type      country area  location activity name  sex   age  
##    <chr> <chr> <chr> <chr>     <chr>   <chr> <chr>    <chr>    <chr> <chr> <chr>
##  1 2023  07    29    Unprovok… USA     Flor… Tampa B… Swimming "Nat… F     26   
##  2 2023  04    22    Unprovok… AUSTRA… West… Lucy's … Surfing  "Max… M     30   
##  3 2023  03    02    Unprovok… SEYCHE… Pras… <NA>     Snorkel… "Art… M     6    
##  4 2023  02    18    Question… ARGENT… Pata… Chubut … <NA>     "Die… M     32   
##  5 2022  07    28    Unprovok… ENGLAND Corn… Penzance Snorkel… "fem… F     <NA> 
##  6 2022  03    09    Provoked  USA     Flor… New Smy… Fishing  "mal… M     21.0 
##  7 2021  12    06    Unprovok… AUSTRA… Vict… Ocean G… Swimming "Jac… M     15.0 
##  8 2021  01    22    Unprovok… USA     Hawa… Maui     Snorkel… "Jer… M     73.0 
##  9 2021  01    02    Unprovok… USA     Flor… Cocoa B… Surfing  "Kel… M     17.0 
## 10 2020  10    30    Unprovok… BAHAMAS Gran… East En… Spearfi… "Ant… M     <NA> 
## # ℹ 6,880 more rows
## # ℹ 11 more variables: injury <chr>, fatal_y_n <chr>, time <chr>,
## #   species <chr>, investigator_or_source <chr>, pdf <chr>, href_formula <chr>,
## #   href <chr>, case_number_19 <chr>, case_number_20 <chr>,
## #   original_order <dbl>
```
…
