…
```
## [1] 34786    13
```


```r
deserts%>%
  group_by(species)%>%
  summarize(count = n())%>%
  arrange(desc(count))
```

```
## # A tibble: 40 × 2
##    species      count
##    <chr>        <int>
##  1 merriami     10596
##  2 penicillatus  3123
##  3 ordii         3027
##  4 baileyi       2891
##  5 megalotis     2609
##  6 spectabilis   2504
##  7 torridus      2249
##  8 flavus        1597
##  9 eremicus      1299
## 10 albigula      1252
## # ℹ 30 more rows
```
…
7. [Dipodomys merriami](https://en.wikipedia.org/wiki/Merriam's_kangaroo_rat) is the most frequently sampled animal in the study. How have the number of observations of this species changed over the years included in the study?

```r
deserts%>%
  group_by(year)%>%
  filter(genus == "Dipodomys" & species == "merriami")%>%
  summarize(number_obs = n())%>%
  arrange(desc(year))
```

```
## # A tibble: 26 × 2
##     year number_obs
##    <dbl>      <int>
##  1  2002        309
##  2  2001        305
##  3  2000        233
##  4  1999        348
##  5  1998        503
##  6  1997        576
##  7  1996        492
##  8  1995        436
##  9  1994        293
## 10  1993        253
## # ℹ 16 more rows
```
…
