…
```r
wolves%>%
  naniar::miss_var_summary()
```

```
## # A tibble: 23 × 3
##    variable    n_miss pct_miss
##    <chr>        <int>    <dbl>
##  1 toxo.binary    827   41.6  
##  2 color          616   31.0  
##  3 chv.binary     548   27.6  
##  4 neo.binary     538   27.1  
##  5 cav.binary     321   16.2  
##  6 age.cat        102    5.14 
##  7 cdv.binary      21    1.06 
##  8 sex             19    0.957
##  9 cpv.binary       7    0.352
## 10 pop              0    0    
## # ℹ 13 more rows
```
…
