…
```r
spider_list[["Butte"]]
#> # A tibble: 1 × 9
#>   Accession Family    Genus   Country State      County Locality Date  Collector
#>       <dbl> <chr>     <chr>   <chr>   <chr>      <chr>  <chr>    <chr> <chr>    
#> 1   9038509 Telemidae Usofila USA     California Butte  Dry Cre… 2/3/… RO Schus…
```

## Merging Files
We are fortunate here in that all of our data frames have the same column names. This makes it easy to merge the data together with `bind_rows()` from `dplyr`. `bind_rows()` matches columns by name.

```r
spiders_all <- bind_rows(spider_list)
spiders_all
#> # A tibble: 270 × 9
#>    Accession Family    Genus   Country State     County Locality Date  Collector
#>        <dbl> <chr>     <chr>   <chr>   <chr>     <chr>  <chr>    <chr> <chr>    
#>  1   9038521 Telemidae Usofila USA     Californ… Alame… Berkeley 2/3/… LM Smith 
#>  2   9038522 Telemidae Usofila USA     Californ… Alame… Castro … 24/3… WM Pearce
#>  3   9038523 Telemidae Usofila USA     Californ… Alame… Niles, … 2/1/… V Roth   
#>  4   9038524 Telemidae Usofila USA     Californ… Alame… Oakland  18/2… WG Benti…
#>  5   9038525 Telemidae Usofila USA     Californ… Alame… Oakland  25/1… R Schust…
#>  6   9038526 Telemidae Usofila USA     Californ… Alame… Oakland  18/2… WC Benti…
#>  7   9038527 Telemidae Usofila USA     Californ… Alame… Oakland  10/1… J Helfer 
#>  8  90386281 Telemidae Usofila USA     Californ… Alame… Oakland… 17/1… Roth, Sc…
#>  9   9038529 Telemidae Usofila USA     Californ… Alame… Oakland… 17/1… Roth, Sc…
#> 10  90387441 Telemidae Usofila USA     Californ… Alame… Berkele… 17/2… PR Craig…
#> # ℹ 260 more rows
```
…
